obs,flocksize
1,130
2,31
3,114
4,38
5,15
6,14
7,5
8,46
9,50
10,23
11,28
12,28
13,47
14,60
15,86
16,20
17,65
18,20
19,9
20,15
21,16
22,16
23,47
24,30
25,152
26,9
27,43
28,5
29,47
30,8
31,4
32,73
33,57
34,49
35,48
36,151
37,60
38,121
39,9
40,27
41,20
42,10
43,57
44,21
45,13
46,53
47,88
48,12
49,57
50,17
51,8
52,40
53,23
54,4
55,26
56,37
57,31
58,71
59,39
60,24
61,57
62,22
63,7
64,86
65,28
66,11
67,30
68,253
69,10
70,46
71,17
72,30
73,11
74,28
75,6
76,52
77,16
78,87
79,54
80,29
81,31
82,102
83,8
84,11
85,132
86,41
87,25
88,93
89,13
90,141
91,11
92,50
93,15
94,14
95,75
96,25
97,7
98,86
99,99
100,5
101,52
102,127
103,12
104,81
105,73
106,7
107,58
108,15
109,26
110,44
111,64
112,10
113,14
114,121
115,24
116,30
117,8
118,40
119,17
120,59
121,9
122,33
123,18
124,79
125,15
126,29
127,42
128,20
129,25
130,17
131,55
132,51
133,69
134,32
135,44
136,18
137,14
138,6
139,45
140,13
141,12
142,5
143,16
144,21
145,6
146,29
147,11
148,4
149,66
150,49
151,9
152,10
153,6
154,95
155,6
156,53
157,6
158,14
159,32
160,7
161,29
162,22
163,9
164,103
165,11
166,101
167,84
168,7
169,18
170,75
171,126
172,50
173,9
174,83
175,35
176,5
177,8
178,18
179,55
180,16
181,15
182,27
183,78
184,10
185,23
186,44
187,41
188,24
189,6
190,39
191,5
192,37
193,6
194,52
195,236
196,32
197,32
198,94
199,13
200,5